{
  "images" : [
    {
      "idiom" : "universal",
      "filename" : "ic_noti_smoke.png",
      "scale" : "1x"
    },
    {
      "idiom" : "universal",
      "filename" : "ic_noti_smoke-1.png",
      "scale" : "2x"
    },
    {
      "idiom" : "universal",
      "filename" : "ic_noti_smoke-2.png",
      "scale" : "3x"
    }
  ],
  "info" : {
    "version" : 1,
    "author" : "xcode"
  }
}